<?xml version="1.0" encoding="utf-8"?>
<!-- Generator: Adobe Illustrator 19.2.1, SVG Export Plug-In . SVG Version: 6.00 Build 0)  -->
<svg version="1.1" id="Isolation_Mode" xmlns="http://www.w3.org/2000/svg" xmlns:xlink="http://www.w3.org/1999/xlink" x="0px"
	 y="0px" width="46.7px" height="28px" viewBox="0 0 46.7 28" style="enable-background:new 0 0 46.7 28;" xml:space="preserve">
<style type="text/css">
	.st0{fill:#DBE0E3;}
</style>
<g>
	<g>
		<path class="st0" d="M34.4,15c-0.1,0-0.3,0.1-0.4,0.1c-0.1,0.1-0.3,0.2-0.3,0.3c-0.1,0.1-0.1,0.3-0.1,0.5s0.1,0.3,0.2,0.4
			c0.1,0.1,0.3,0.1,0.5,0.1c0.1,0,0.1,0,0.2,0c0.1,0,0.1,0,0.2-0.1c0.2-0.1,0.3-0.2,0.4-0.3l0.2-1.2c-0.2,0-0.5,0.1-0.7,0.1
			C34.5,15,34.5,15,34.4,15z"/>
		<path class="st0" d="M43.1,13.1c-0.1,0-0.3,0-0.4,0.1c-0.1,0-0.1,0.1-0.2,0.1c-0.2,0.1-0.3,0.3-0.4,0.5c-0.1,0.2-0.2,0.5-0.2,0.8
			c-0.1,0.3-0.1,0.6-0.1,0.9c0,0.3,0.1,0.6,0.2,0.7c0.1,0.2,0.3,0.2,0.5,0.2c0.1,0,0.2,0,0.3-0.1c0,0,0.1,0,0.1-0.1
			c0.1-0.1,0.3-0.2,0.4-0.3l0.5-2.8c-0.1,0-0.2-0.1-0.3-0.1C43.3,13.1,43.2,13.1,43.1,13.1z"/>
		<path class="st0" d="M22.1,12.9c-0.1,0-0.1,0-0.2,0c-0.2,0-0.3,0.1-0.5,0.3S21.1,13.7,21,14h0.9h0.9c0-0.1,0-0.1,0-0.2v-0.1
			c0-0.3-0.1-0.5-0.2-0.6C22.5,13,22.3,12.9,22.1,12.9z"/>
		<path class="st0" d="M32.7,0c-7,0-12.8,5.2-13.8,11.9H20l-0.2,1.2h-1c0,0.3,0,0.6,0,0.9c0,0.8,0.1,1.6,0.2,2.4
			c0.1,0,0.2-0.1,0.2-0.1h0.1l-0.2,0.9c1.5,6.2,7,10.8,13.6,10.8c7.7,0,14-6.3,14-14S40.5,0,32.7,0z M24.1,14.4
			c0,0.2-0.1,0.4-0.1,0.6h-2.1h-1v0.1v0.1c0,0.4,0.1,0.7,0.3,0.9c0.2,0.2,0.4,0.3,0.7,0.3h0.2c0.3,0,0.6-0.1,0.8-0.2
			c0.3-0.1,0.5-0.3,0.7-0.5h0.2l-0.3,1.5c-0.3,0.2-0.5,0.3-0.8,0.3c-0.2,0.1-0.5,0.1-0.8,0.1h-0.1c-0.7,0-1.3-0.2-1.6-0.6
			c-0.4-0.4-0.6-1-0.6-1.8c0-0.5,0.1-1,0.2-1.4s0.3-0.8,0.5-1.1s0.5-0.6,0.9-0.7c0.2-0.1,0.5-0.2,0.8-0.3c0.1,0,0.2,0,0.4,0
			c0.6,0,1.1,0.2,1.4,0.5s0.5,0.8,0.5,1.5C24.1,14,24.1,14.2,24.1,14.4z M26.5,13.8l-0.6,3.8h-1.3l1-5.6h1.3v0.5
			c0.3-0.3,0.5-0.5,1.3-0.4c0,0-0.4,0.8-0.5,1.6C27.3,13.3,26.7,13.3,26.5,13.8z M29.6,15.9c0.2,0.3,0.5,0.4,0.9,0.4
			c0.3,0,0.7-0.1,1-0.3c0.1-0.1,0.3-0.2,0.4-0.3l-0.3,1.7l-0.2,0.1c-0.2,0.1-0.4,0.1-0.5,0.2c-0.2,0-0.4,0.1-0.7,0.1
			c-0.7,0-1.3-0.3-1.7-0.8c-0.4-0.5-0.6-1.2-0.6-2.1c0-0.7,0.1-1.4,0.3-2c0.2-0.6,0.4-1.1,0.7-1.5c0.3-0.4,0.7-0.8,1.1-1
			s0.9-0.4,1.3-0.4s0.7,0.1,1.1,0.2c0.2,0.1,0.5,0.2,0.5,0.2l-0.3,1.8c-0.2-0.2-0.3-0.4-0.5-0.5s-0.5-0.2-0.8-0.2
			c-0.6,0-1,0.3-1.4,0.9c-0.4,0.6-0.5,1.4-0.5,2.3C29.3,15.2,29.4,15.6,29.6,15.9z M36.8,13.4c0,0.1,0,0.2,0,0.3l-0.7,3.8h-1.3
			l0.1-0.6c-0.1,0.1-0.2,0.2-0.3,0.3l-0.2,0.1c-0.1,0-0.1,0.1-0.2,0.1c-0.1,0.1-0.3,0.1-0.4,0.2c-0.1,0-0.3,0.1-0.5,0.1
			c-0.4,0-0.6-0.1-0.9-0.4c-0.2-0.3-0.3-0.6-0.3-1c0-0.5,0.1-0.8,0.2-1.1c0.2-0.3,0.4-0.6,0.7-0.7c0.3-0.2,0.6-0.3,1-0.4
			c0.1,0,0.2,0,0.3,0c0.3-0.1,0.7-0.1,1-0.1v-0.1v-0.1c0-0.2-0.1-0.4-0.2-0.5c0-0.3-0.3-0.3-0.6-0.3h-0.1c-0.2,0-0.4,0.1-0.7,0.1
			c-0.3,0.1-0.5,0.2-0.6,0.3H33l0.2-1.3c0.2-0.1,0.4-0.1,0.7-0.2c0.2,0,0.3-0.1,0.5-0.1s0.3,0,0.5,0c0.7,0,1.1,0.1,1.4,0.3
			c0.3,0.2,0.5,0.6,0.5,1.1C36.8,13.3,36.8,13.3,36.8,13.4z M39,13.8l-0.6,3.8H37l1-5.6h1.3v0.5c0.3-0.3,0.5-0.5,1.3-0.4
			c0,0-0.4,0.8-0.5,1.6C39.8,13.3,39.1,13.3,39,13.8z M42.9,17.6L43,17c-0.1,0.1-0.2,0.2-0.3,0.3c-0.1,0.1-0.2,0.2-0.3,0.3
			c-0.1,0.1-0.2,0.1-0.3,0.1s-0.2,0-0.4,0c-0.4,0-0.7-0.2-1-0.5c-0.2-0.4-0.4-0.9-0.4-1.5c0-0.5,0.1-1.1,0.2-1.5
			c0.1-0.5,0.3-0.9,0.5-1.2c0.2-0.4,0.5-0.6,0.8-0.8s0.6-0.3,0.9-0.3l0,0c0.2,0,0.4,0,0.6,0.1c0.2,0.1,0.3,0.2,0.5,0.3l0.3-2h1.3
			l-1.2,7.4L42.9,17.6L42.9,17.6z"/>
	</g>
	<g>
		<path class="st0" d="M22.1,12.9c-0.1,0-0.1,0-0.2,0c-0.2,0-0.3,0.1-0.5,0.3S21.1,13.7,21,14h0.9h0.9c0-0.1,0-0.1,0-0.2v-0.1
			c0-0.3-0.1-0.5-0.2-0.6C22.5,13,22.3,12.9,22.1,12.9z"/>
		<path class="st0" d="M10.3,15c-0.1,0-0.3,0.1-0.4,0.1c-0.2,0.1-0.3,0.2-0.3,0.3c-0.1,0.1-0.1,0.3-0.1,0.5s0.1,0.3,0.2,0.4
			c0.1,0.1,0.3,0.1,0.5,0.1c0.1,0,0.1,0,0.2,0c0.1,0,0.1,0,0.2-0.1c0.1-0.1,0.3-0.2,0.4-0.3l0.2-1.2c-0.2,0-0.5,0.1-0.7,0.1
			C10.4,15,10.4,15,10.3,15z"/>
		<path class="st0" d="M27.9,15.8c-0.1-0.3-0.1-0.6-0.1-0.9c0-0.6,0.1-1.1,0.2-1.6c0-0.3,0-0.6-0.1-0.8c-0.1,0.3-0.3,0.7-0.3,1.1
			c-0.3-0.2-0.9-0.2-1.1,0.3l-0.6,3.8h-1.3l1-5.6h1.3v0.5c0.2-0.2,0.5-0.4,1-0.4c-0.1-0.5-0.1-0.9-0.2-1.1h-8.6
			c0.1-0.6,0.4-1.3,0.4-1.3h7.8c-0.1-0.6-0.7-1.7-0.7-1.7h-6.4C20.5,7.5,21,6.7,21,6.7h4.9c-0.3-0.7-1.2-1.6-1.2-1.6h-2.5
			c0.5-0.6,1.2-1.3,1.2-1.3C20.9,1.4,17.6,0,14,0C6.3,0,0,6.3,0,14s6.3,14,14,14c3.6,0,6.9-1.4,9.4-3.6l0,0l0,0c0,0,1-0.8,1.5-1.6
			h-3c-0.3-0.3-0.7-0.9-0.9-1.3h4.9c0.2-0.4,0.6-1.1,0.9-1.6H20c-0.2-0.4-0.4-1-0.5-1.4h7.8C27.6,17.5,27.8,16.6,27.9,15.8z
			 M5.6,17.6l0.8-4.9l-1.8,4.9h-1l-0.2-5.1l-0.9,5.1H1.2l1.3-7.5h1.6l0.6,4.3l1.9-4.3h1.7L7,17.6H5.6z M10.7,17.6l0.1-0.6
			c-0.1,0.1-0.2,0.2-0.3,0.3c-0.1,0-0.1,0.1-0.2,0.1c-0.1,0-0.1,0.1-0.2,0.1c-0.1,0.1-0.3,0.1-0.4,0.2c-0.1,0-0.3,0.1-0.5,0.1
			c-0.3,0-0.6-0.1-0.8-0.4s-0.3-0.6-0.3-1c0-0.5,0.1-0.8,0.2-1.1C8.5,15,8.7,14.7,9,14.6c0.3-0.2,0.6-0.3,1-0.4h0.3
			c0.3-0.1,0.7-0.1,1-0.1V14v-0.1c0-0.2-0.1-0.4-0.2-0.5C10.9,13,10.7,13,10.4,13h-0.1c-0.2,0-0.4,0.1-0.7,0.1
			c-0.3,0.1-0.5,0.2-0.6,0.3H8.9L9.1,12c0.2-0.1,0.4-0.1,0.7-0.2c0.2,0,0.3-0.1,0.5-0.1s0.3,0,0.5,0c0.7,0,1.1,0.1,1.4,0.3
			c0.3,0.2,0.5,0.6,0.5,1.1c0,0.1,0,0.1,0,0.3c0,0.1,0,0.2,0,0.3L12,17.6H10.7z M15.8,14.3c0.7,0.3,0.7,1.1,0.6,1.6
			c-0.1,0.5-0.2,1.7-2.1,1.7c-1.1,0-1.7-0.2-1.7-0.2l0.3-1.3c0,0,1.5,0.4,1.8,0.2c0.3-0.2,0.7-0.6,0.1-0.9c-0.6-0.3-1.6-0.7-1.6-1.7
			s0.4-1.6,1.1-1.9c0.6-0.3,1.8-0.3,2.6-0.1L16.7,13h-1.2c0,0-0.6,0.2-0.6,0.4C14.6,13.7,15.1,14,15.8,14.3z M18.2,16.4
			c0.1,0.1,0.2,0.1,0.4,0.1c0.1,0,0.2,0,0.3,0c0.1,0,0.2-0.1,0.3-0.1h0.1l-0.2,1.2c-0.2,0.1-0.3,0.1-0.5,0.1s-0.4,0-0.6,0
			c-0.5,0-0.8-0.1-1-0.3c-0.2-0.2-0.3-0.5-0.3-0.9c0-0.1,0-0.2,0-0.3c0-0.1,0-0.2,0-0.4l0.9-4.8H19l-0.2,0.9H20l-0.2,1.2h-1.3
			l-0.3,2c0,0.1,0,0.3-0.1,0.4c0,0.1,0,0.3,0,0.4C18.1,16.1,18.1,16.3,18.2,16.4z M24.1,14.4c0,0.2-0.1,0.4-0.1,0.6h-2.1h-1v0.1v0.1
			c0,0.4,0.1,0.7,0.3,0.9c0.2,0.2,0.4,0.3,0.7,0.3h0.2c0.3,0,0.6-0.1,0.8-0.2c0.3-0.1,0.5-0.3,0.7-0.5h0.2l-0.3,1.5
			c-0.3,0.2-0.5,0.3-0.8,0.3c-0.2,0.1-0.5,0.1-0.8,0.1h-0.1c-0.7,0-1.3-0.2-1.6-0.6c-0.4-0.4-0.6-1-0.6-1.8c0-0.5,0.1-1,0.2-1.4
			s0.3-0.8,0.5-1.1s0.5-0.6,0.9-0.7c0.2-0.1,0.5-0.2,0.8-0.3c0.1,0,0.2,0,0.4,0c0.6,0,1.1,0.2,1.4,0.5s0.5,0.8,0.5,1.5
			C24.1,14,24.1,14.2,24.1,14.4z"/>
	</g>
</g>
</svg>
