<?xml version="1.0" encoding="utf-8"?>
<!-- Generator: Adobe Illustrator 19.2.1, SVG Export Plug-In . SVG Version: 6.00 Build 0)  -->
<svg version="1.1" id="Layer_1" xmlns="http://www.w3.org/2000/svg" xmlns:xlink="http://www.w3.org/1999/xlink" x="0px" y="0px"
	 width="78px" height="24px" viewBox="0 0 78 24" style="enable-background:new 0 0 78 24;" xml:space="preserve">
<style type="text/css">
	.st0{fill:#DBE0E3;}
</style>
<g>
	<g>
		<polygon class="st0" points="27.8,23.4 31.7,0.1 38,0.1 34.1,23.4 		"/>
		<path class="st0" d="M57,0.7c-1.3-0.5-3.2-1-5.7-1c-6.2,0-10.6,3.2-10.7,7.7c0,3.3,3.1,5.2,5.5,6.3c2.5,1.1,3.3,1.9,3.3,2.9
			c0,1.6-2,2.3-3.8,2.3c-2.5,0-3.9-0.4-5.9-1.2l-0.8-0.4L38,22.5c1.5,0.6,4.2,1.2,7,1.2c6.6,0,10.9-3.1,11-7.9
			c0-2.6-1.7-4.7-5.3-6.3c-2.2-1.1-3.6-1.8-3.5-2.9c0-1,1.1-2,3.6-2c2.1,0,3.6,0.4,4.7,0.9l0.6,0.3L57,0.7"/>
		<path class="st0" d="M73.2,0.2h-4.9c-1.5,0-2.6,0.4-3.3,1.9l-9.4,21.3h6.6c0,0,1.1-2.9,1.3-3.5c0.7,0,7.2,0,8.1,0
			c0.2,0.8,0.8,3.5,0.8,3.5h5.9L73.2,0.2 M65.4,15.1c0.5-1.3,2.5-6.5,2.5-6.5c0,0.1,0.5-1.3,0.8-2.2l0.4,2c0,0,1.2,5.6,1.5,6.7H65.4
			z"/>
		<path class="st0" d="M22.5,0.1L16.3,16l-0.7-3.2C14.5,9.1,10.9,5,6.9,3l5.7,20.3h6.7l9.9-23.2L22.5,0.1"/>
		<path class="st0" d="M10.5,0.1H0.4L0.3,0.6c7.9,1.9,13.2,6.6,15.3,12.2L13.4,2.1C13,0.6,11.9,0.2,10.5,0.1"/>
	</g>
</g>
</svg>
